{
  "/": {
    "target": "http://localhost:3030",
    "secure": false
  },
  "e2e server": {
    "target": "https://e2e-weaver.play.nefeli.io/",
    "secure": false
  },
  "nautilus testbed": {
    "target": "https://10.10.10.66:443",
    "secure": false
  },
  "local tunnel on port 2443": {
    "target": "https://localhost:2443",
    "secure": false
  }
}
