<?xml version="1.0" encoding="UTF-8"?>
<svg width="16px" height="16px" viewBox="0 0 16 16" version="1.1" xmlns="http://www.w3.org/2000/svg" xmlns:xlink="http://www.w3.org/1999/xlink">
    <!-- Generator: Sketch 50.2 (55047) - http://www.bohemiancoding.com/sketch -->
    <title>16x16/Alert-circle@1,5x</title>
    <desc>Created with Sketch.</desc>
    <defs></defs>
    <g id="Symbols" stroke="none" stroke-width="1" fill="none" fill-rule="evenodd">
        <g id="16x16/Alert-circle">
            <g>
                <circle id="Oval" stroke="#FF4757" stroke-width="1.6" fill="#FF4757" cx="8" cy="8" r="7.2"></circle>
                <path d="M8,3.66666667 L8,7.8" id="Shape" stroke="#FFFFFF" stroke-width="1.6" stroke-linecap="round" stroke-linejoin="round"></path>
                <circle id="Oval-2" fill="#FFFFFF" cx="8" cy="11.5333333" r="1"></circle>
            </g>
        </g>
    </g>
</svg>