<?xml version="1.0" encoding="UTF-8"?>
<svg width="16px" height="16px" viewBox="0 0 16 16" version="1.1" xmlns="http://www.w3.org/2000/svg" xmlns:xlink="http://www.w3.org/1999/xlink">
    <!-- Generator: Sketch 50.2 (55047) - http://www.bohemiancoding.com/sketch -->
    <title>16x16/calendar--dark@1,5x</title>
    <desc>Created with Sketch.</desc>
    <defs></defs>
    <g id="Symbols" stroke="none" stroke-width="1" fill="none" fill-rule="evenodd">
        <g id="16x16/calendar--dark">
            <g>
                <rect id="Rectangle-9" x="0" y="0" width="16" height="16"></rect>
                <g id="calendar" transform="translate(2.000000, 2.000000)" stroke="#4093FF" stroke-linecap="round" stroke-linejoin="round" stroke-width="1.23076923">
                    <rect id="Rectangle-path" x="0" y="1.2" width="12" height="10.8" rx="1.23076923"></rect>
                    <path d="M8.94444444,0 L8.94444444,2.4" id="Shape"></path>
                    <path d="M3.05555556,0 L3.05555556,2.4" id="Shape"></path>
                    <path d="M0,4.8 L12,4.8" id="Shape"></path>
                </g>
            </g>
        </g>
    </g>
</svg>