<?xml version="1.0" encoding="UTF-8"?>
<svg width="60px" height="11px" viewBox="0 0 60 11" version="1.1" xmlns="http://www.w3.org/2000/svg" xmlns:xlink="http://www.w3.org/1999/xlink">
    <!-- Generator: Sketch 51.2 (57519) - http://www.bohemiancoding.com/sketch -->
    <title>Group 9</title>
    <desc>Created with Sketch.</desc>
    <defs></defs>
    <g id="➕-Add-Service" stroke="none" stroke-width="1" fill="none" fill-rule="evenodd">
        <g id="Pipeline-View---NF---Traffic-Dropdown" transform="translate(-490.000000, -681.000000)">
            <g id="Tooltip" transform="translate(375.000000, 627.000000)">
                <g id="Links" transform="translate(107.000000, 47.989950)">
                    <g id="Group-9" transform="translate(8.000000, 6.678392)">
                        <rect id="Rectangle-5" fill="#4E5866" x="0" y="3.87939698" width="60" height="1.34371857" rx="0.671859285"></rect>
                        <polyline id="Shape" stroke="#4E5866" stroke-width="1.4" stroke-linecap="round" stroke-linejoin="round" transform="translate(30.000000, 4.839196) rotate(90.000000) translate(-30.000000, -4.839196) " points="26 2.91959799 30 6.75879397 34 2.91959799"></polyline>
                    </g>
                </g>
            </g>
        </g>
    </g>
</svg>