<?xml version="1.0" encoding="UTF-8"?>
<svg width="16px" height="16px" viewBox="0 0 16 16" version="1.1" xmlns="http://www.w3.org/2000/svg" xmlns:xlink="http://www.w3.org/1999/xlink">
    <!-- Generator: Sketch 52.2 (67145) - http://www.bohemiancoding.com/sketch -->
    <title>16x16/switch/Blue</title>
    <desc>Created with Sketch.</desc>
    <g id="🎛-Control-Panel" stroke="none" stroke-width="1" fill="none" fill-rule="evenodd">
        <g id="Control-Panel---User" transform="translate(-673.000000, -116.000000)">
            <g id="Edit-service" transform="translate(673.000000, 116.000000)">
                <g id="16x16/Edit/Blue">
                    <g>
                        <rect id="placer" x="0" y="0" width="15.8558559" height="16"></rect>
                        <g transform="translate(2.000000, 2.000000)" id="Shape" stroke="#0198CF" stroke-linecap="round" stroke-linejoin="round" stroke-width="1.2">
                            <path d="M10.8,7.596 L10.8,10.8 C10.8,11.4627417 10.2627417,12 9.6,12 L1.2,12 C0.5372583,12 0,11.4627417 0,10.8 L0,2.4 C-1.33226763e-16,1.7372583 0.5372583,1.2 1.2,1.2 L4.404,1.2"></path>
                            <polygon points="9.6 0 12 2.4 6 8.4 3.6 8.4 3.6 6"></polygon>
                        </g>
                    </g>
                </g>
            </g>
        </g>
        <g id="Page"></g>
        <g id="Page"></g>
    </g>
</svg>