<?xml version="1.0" encoding="UTF-8"?>
<svg width="16px" height="16px" viewBox="0 0 16 16" version="1.1" xmlns="http://www.w3.org/2000/svg" xmlns:xlink="http://www.w3.org/1999/xlink">
    <!-- Generator: Sketch 52.4 (67378) - http://www.bohemiancoding.com/sketch -->
    <title>16x16/remove--red</title>
    <desc>Created with Sketch.</desc>
    <g id="🎛-Control-Panel" stroke="none" stroke-width="1" fill="none" fill-rule="evenodd">
        <g id="Control-Panel---Tenant-A" transform="translate(-967.000000, -309.000000)">
            <g id="Modal" transform="translate(427.000000, 268.000000)">
                <g id="16x16/remove--red" transform="translate(540.000000, 41.000000)">
                    <rect id="Rectangle" fill="#D8D8D8" opacity="0" x="0" y="0" width="16" height="16"></rect>
                    <g id="power" transform="translate(2.000000, 1.000000)" stroke="#FF4757" stroke-linecap="round" stroke-linejoin="round" stroke-width="1.23809524">
                        <path d="M10.072142,3.60080764 C12.291431,5.77677356 12.2910393,9.30407629 10.071267,11.4795686 C7.85149479,13.6550609 4.25278916,13.6550609 2.03301692,11.4795686 C-0.186755317,9.30407629 -0.187147028,5.77677356 2.03214198,3.60080764" id="Path"></path>
                        <path d="M6.05529987,0.728426687 L6.05529987,6.91890288" id="Path"></path>
                    </g>
                </g>
            </g>
        </g>
        <g id="Page"></g>
        <g id="Page"></g>
    </g>
</svg>