<?xml version="1.0" encoding="UTF-8"?>
<svg width="24px" height="24px" viewBox="0 0 24 24" version="1.1" xmlns="http://www.w3.org/2000/svg" xmlns:xlink="http://www.w3.org/1999/xlink">
    <!-- Generator: Sketch 52.4 (67378) - http://www.bohemiancoding.com/sketch -->
    <title>24x24/Notification/White</title>
    <desc>Created with Sketch.</desc>
    <g id="Symbols" stroke="none" stroke-width="1" fill="none" fill-rule="evenodd">
        <g id="nav/user" transform="translate(-1120.000000, -14.000000)" fill-rule="nonzero">
            <g id="nav">
                <g id="24x24/Notification/White" transform="translate(1120.000000, 14.000000)">
                    <rect id="Placer" opacity="0" x="0" y="0" width="24" height="24"></rect>
                    <g transform="translate(4.000000, 4.000000)" stroke="#FFFFFF" stroke-width="1.6">
                        <path d="M4.5,13 L11.5,13 L11.5,13 C11.5,14.9329966 9.93299662,16.5 8,16.5 L8,16.5 C6.06700338,16.5 4.5,14.9329966 4.5,13 Z" id="Rectangle"></path>
                        <path d="M8,0 L8,8.8817842e-16 C11.2113322,2.98266271e-16 13.8203804,2.59238872 13.8409512,5.803655 C13.8491783,7.08484043 13.9021879,8.06695547 14,8.75 C14.2135417,10.2412109 14.8802083,11.6578776 16,13 L1.50102153e-13,13 C1.0086263,11.3058268 1.67529297,9.88916016 2,8.75 C2.16078554,8.18592079 2.24195473,7.18600687 2.24350756,5.75025824 L2.24351921,5.75025825 C2.24695505,2.57347279 4.82321268,-3.04612057e-16 8,-8.8817842e-16 Z" id="Path-2" stroke-linejoin="round"></path>
                    </g>
                </g>
            </g>
        </g>
    </g>
</svg>