<?xml version="1.0" encoding="UTF-8"?>
<svg width="22px" height="22px" viewBox="0 0 22 22" version="1.1" xmlns="http://www.w3.org/2000/svg" xmlns:xlink="http://www.w3.org/1999/xlink">
    <!-- Generator: Sketch 53 (72520) - https://sketchapp.com -->
    <title>22x22/Alert-Circle--White</title>
    <desc>Created with Sketch.</desc>
    <g id="🚨-Alerts-&amp;-Alarms" stroke="none" stroke-width="1" fill="none" fill-rule="evenodd">
        <g id="Overview---Top-Alert----Details" transform="translate(-565.000000, -13.000000)">
            <g id="Alert-Bar">
                <g id="Group" transform="translate(564.000000, 12.000000)">
                    <g id="24x24/Alert-Circle--White">
                        <g>
                            <rect id="container" fill="#D8D8D8" fill-rule="nonzero" opacity="0" x="0" y="0" width="24" height="24"></rect>
                            <circle id="Oval" stroke="#FFFFFF" stroke-width="1.6" fill-rule="nonzero" cx="12" cy="12" r="10"></circle>
                            <path d="M12,7 L12,12" id="Path" stroke="#FFFFFF" stroke-width="1.6" stroke-linecap="round" stroke-linejoin="round"></path>
                            <circle id="Oval-2" fill="#FFFFFF" cx="12" cy="16" r="1"></circle>
                        </g>
                    </g>
                </g>
            </g>
        </g>
    </g>
</svg>
