<?xml version="1.0" encoding="UTF-8"?>
<svg width="60px" height="11px" viewBox="0 0 60 11" version="1.1" xmlns="http://www.w3.org/2000/svg" xmlns:xlink="http://www.w3.org/1999/xlink">
    <!-- Generator: Sketch 51.2 (57519) - http://www.bohemiancoding.com/sketch -->
    <title>Group 10</title>
    <desc>Created with Sketch.</desc>
    <defs></defs>
    <g id="➕-Add-Service" stroke="none" stroke-width="1" fill="none" fill-rule="evenodd">
        <g id="Pipeline-View---NF---Traffic-Dropdown" transform="translate(-398.000000, -681.000000)">
            <g id="Tooltip" transform="translate(375.000000, 627.000000)">
                <g id="Links" transform="translate(15.000000, 47.989950)">
                    <g id="Group-10" transform="translate(8.000000, 6.678392)">
                        <rect id="Rectangle-5" fill="#4E5866" x="0" y="4.22539573" width="60" height="1.34371857" rx="0.671859285"></rect>
                        <g id="16x16/chevron-down/black" transform="translate(15.919598, 4.839196) rotate(-270.000000) translate(-15.919598, -4.839196) translate(11.919598, 2.839196)" stroke="#4E5866" stroke-linecap="round" stroke-linejoin="round" stroke-width="1.4">
                            <g transform="translate(0.000000, 0.000000)" id="Shape">
                                <g transform="translate(0.000000, 0.000000)">
                                    <polyline points="-3.12638804e-13 0 4 3.83919598 8 0"></polyline>
                                </g>
                            </g>
                        </g>
                        <g id="16x16/chevron-down/black" transform="translate(42.080402, 4.839196) rotate(-90.000000) translate(-42.080402, -4.839196) translate(38.080402, 2.839196)" stroke="#4E5866" stroke-linecap="round" stroke-linejoin="round" stroke-width="1.4">
                            <g transform="translate(-0.000000, 0.000000)" id="Shape">
                                <g transform="translate(-0.000000, 0.000000)">
                                    <polyline points="-4.26325641e-14 0 4 3.83919598 8 0"></polyline>
                                </g>
                            </g>
                        </g>
                    </g>
                </g>
            </g>
        </g>
    </g>
</svg>