<?xml version="1.0" encoding="UTF-8"?>
<svg width="220px" height="109px" viewBox="0 0 220 109" version="1.1" xmlns="http://www.w3.org/2000/svg" xmlns:xlink="http://www.w3.org/1999/xlink">
    <!-- Generator: Sketch 50.2 (55047) - http://www.bohemiancoding.com/sketch -->
    <title>Illustration-Cluster@1,5x</title>
    <desc>Created with Sketch.</desc>
    <defs>
        <rect id="path-1" x="0" y="0" width="220" height="180" rx="4"></rect>
        <filter x="-5.9%" y="-6.1%" width="111.8%" height="114.4%" filterUnits="objectBoundingBox" id="filter-2">
            <feOffset dx="0" dy="2" in="SourceAlpha" result="shadowOffsetOuter1"></feOffset>
            <feGaussianBlur stdDeviation="4" in="shadowOffsetOuter1" result="shadowBlurOuter1"></feGaussianBlur>
            <feColorMatrix values="0 0 0 0 0.273942389   0 0 0 0 0.273942389   0 0 0 0 0.273942389  0 0 0 0.04 0" type="matrix" in="shadowBlurOuter1"></feColorMatrix>
        </filter>
    </defs>
    <g id="📈-Overview" stroke="none" stroke-width="1" fill="none" fill-rule="evenodd">
        <g id="Overview" transform="translate(-1100.000000, -228.000000)">
            <g id="Top-Cards" transform="translate(120.000000, 157.000000)">
                <g id="cluster-capacity" transform="translate(980.000000, 0.000000)">
                    <g id="card-bg">
                        <use fill="black" fill-opacity="1" filter="url(#filter-2)" xlink:href="#path-1"></use>
                        <use fill="#FFFFFF" fill-rule="evenodd" xlink:href="#path-1"></use>
                    </g>
                    <g id="Illustration-Cluster" transform="translate(0.000000, 71.000000)">
                        <rect id="placer" x="0" y="0" width="220" height="109"></rect>
                        <g id="Illustration" transform="translate(107.000000, 35.000000)">
                            <path d="M73.5257526,33.5843721 C68.1937397,22.9696047 57.1976756,15.6845581 44.4980603,15.6845581 C26.5725474,15.6845581 12.0415859,30.1965349 12.0415859,48.0974884 L0.856111538,48.083814 C0.856111538,24.0122791 20.3950346,4.49888372 44.4980603,4.49888372 C68.5999449,4.49888372 88.1388679,24.0122791 88.1388679,48.083814" id="Stroke-1" stroke="#0198CF" stroke-width="2.48" stroke-linecap="round" stroke-linejoin="round"></path>
                            <path d="M76.9532795,48.0973744 C76.9532795,45.8604674 76.7262154,43.6759791 76.2937667,41.5655605" id="Stroke-3" stroke="#0198CF" stroke-width="2.48" stroke-linecap="round" stroke-linejoin="round"></path>
                            <path d="M44.4976038,48.0833581 L77.38995,0.854195349" id="Stroke-5" stroke="#0198CF" stroke-width="2.48" stroke-linecap="round" stroke-linejoin="round"></path>
                            <path d="M68.1259628,12.5302116 C68.1259628,12.5302116 42.0946038,-8.14778837 13.931809,16.9789558 C13.931809,16.9789558 -0.697280769,30.9633279 0.855655128,48.0837 L12.0422705,48.0973744 C12.0422705,48.0973744 10.5931679,26.8564442 33.1546679,17.7219326 C33.1546679,17.7219326 51.3905397,11.5103279 62.3820397,22.4031419 L68.1259628,12.5302116 Z" id="Fill-7" fill="#0198CF"></path>
                        </g>
                    </g>
                </g>
            </g>
        </g>
    </g>
</svg>