<?xml version="1.0" encoding="UTF-8"?>
<svg width="16px" height="16px" viewBox="0 0 16 16" version="1.1" xmlns="http://www.w3.org/2000/svg" xmlns:xlink="http://www.w3.org/1999/xlink">
    <!-- Generator: Sketch 52.2 (67145) - http://www.bohemiancoding.com/sketch -->
    <title>16x16/Add/White</title>
    <desc>Created with Sketch.</desc>
    <g id="🎛-Control-Panel" stroke="none" stroke-width="1" fill="none" fill-rule="evenodd">
        <g id="Control-Panel---User-Checked" transform="translate(-1292.000000, -180.000000)">
            <g id="button/secondary/default" transform="translate(1173.000000, 170.000000)">
                <g id="link_right/default" transform="translate(12.000000, 8.000000)">
                    <g id="16x16/Add/White" transform="translate(107.000000, 2.000000)">
                        <g>
                            <rect id="placer" x="0" y="0" width="15.8558559" height="16"></rect>
                            <g id="16x16/Add/Black" transform="translate(1.981982, 2.000000)" stroke="#FFFFFF" stroke-linecap="round" stroke-linejoin="round" stroke-width="1.2">
                                <rect id="Rectangle-path" x="0" y="0" width="11.8918919" height="12" rx="1.33333333"></rect>
                                <path d="M5.94594595,3.33333333 L5.94594595,8.66666667" id="Shape"></path>
                                <path d="M3.3033033,6 L8.58858859,6" id="Shape"></path>
                            </g>
                        </g>
                    </g>
                </g>
            </g>
        </g>
        <g id="Page"></g>
        <g id="Page"></g>
    </g>
</svg>