<?xml version="1.0" encoding="UTF-8"?>
<svg width="24px" height="24px" viewBox="0 0 24 24" version="1.1" xmlns="http://www.w3.org/2000/svg" xmlns:xlink="http://www.w3.org/1999/xlink">
    <!-- Generator: Sketch 53 (72520) - https://sketchapp.com -->
    <title>24x24/Cross/White</title>
    <desc>Created with Sketch.</desc>
    <g id="🚨-Alerts-&amp;-Alarms" stroke="none" stroke-width="1" fill="none" fill-rule="evenodd">
        <g id="24x24/Cross/White">
            <g id="16x16/Cross/Red">
                <rect id="Rectangle" x="0" y="0" width="24" height="24"></rect>
                <g stroke-width="1" fill-rule="evenodd" transform="translate(9.000000, 9.000000)" id="Combined-Shape" stroke="#FFFFFF" stroke-linecap="round" stroke-linejoin="round">
                    <path d="M3,3 L0,0 L3,3 L6,0 L3,3 Z M3,3 L6,6 L3,3 L0,6 L3,3 Z" stroke-width="1.4"></path>
                </g>
            </g>
        </g>
    </g>
</svg>