<?xml version="1.0" encoding="UTF-8"?>
<svg width="220px" height="109px" viewBox="0 0 220 109" version="1.1" xmlns="http://www.w3.org/2000/svg" xmlns:xlink="http://www.w3.org/1999/xlink">
    <!-- Generator: Sketch 50.2 (55047) - http://www.bohemiancoding.com/sketch -->
    <title>Illustration-MemoryUsed@1,5x</title>
    <desc>Created with Sketch.</desc>
    <defs>
        <rect id="path-1" x="0" y="0" width="220" height="180" rx="4"></rect>
        <filter x="-5.9%" y="-6.1%" width="111.8%" height="114.4%" filterUnits="objectBoundingBox" id="filter-2">
            <feOffset dx="0" dy="2" in="SourceAlpha" result="shadowOffsetOuter1"></feOffset>
            <feGaussianBlur stdDeviation="4" in="shadowOffsetOuter1" result="shadowBlurOuter1"></feGaussianBlur>
            <feColorMatrix values="0 0 0 0 0.273942389   0 0 0 0 0.273942389   0 0 0 0 0.273942389  0 0 0 0.04 0" type="matrix" in="shadowBlurOuter1"></feColorMatrix>
        </filter>
    </defs>
    <g id="📈-Overview" stroke="none" stroke-width="1" fill="none" fill-rule="evenodd">
        <g id="Overview" transform="translate(-610.000000, -228.000000)">
            <g id="Top-Cards" transform="translate(120.000000, 157.000000)">
                <g id="memory-used" transform="translate(490.000000, 0.000000)">
                    <g id="card-bg">
                        <use fill="black" fill-opacity="1" filter="url(#filter-2)" xlink:href="#path-1"></use>
                        <use fill="#FFFFFF" fill-rule="evenodd" xlink:href="#path-1"></use>
                    </g>
                    <g id="Illustration-MemoryUsed" transform="translate(0.000000, 71.000000)">
                        <rect id="placer" x="0" y="0" width="220" height="109"></rect>
                        <g id="Illustration" transform="translate(103.000000, 27.000000)">
                            <g id="Group-9" transform="translate(37.000000, 0.753300)" stroke="#87C56F" stroke-linecap="round" stroke-linejoin="round" stroke-width="2.11999989">
                                <polygon id="Stroke-1" points="0.7189 15.9351 0.7189 47.3111 27.8919 63.0001 55.0649 47.3111 55.0649 15.9351 27.8919 0.2471"></polygon>
                                <polygon id="Stroke-3" points="0.7189 15.9351 14.1889 23.8821 41.4779 8.0911 27.8919 0.2471"></polygon>
                                <polygon id="Stroke-5" points="55.0646 15.9351 41.2986 23.8821 14.5426 7.9541 27.8916 0.2471"></polygon>
                                <polygon id="Stroke-7" points="55.0646 47.3116 55.0646 15.9356 41.2986 23.8826 41.2986 55.0526"></polygon>
                            </g>
                            <polygon id="Stroke-10" stroke="#87C56F" stroke-width="2.11999989" stroke-linecap="round" stroke-linejoin="round" points="51.1886 55.8422 37.7186 48.0652 37.7186 32.3762 37.7186 16.6882 51.1886 24.6352"></polygon>
                            <g id="Group-15" transform="translate(51.000000, 31.753300)" stroke="#87C56F" stroke-linecap="round" stroke-linejoin="round" stroke-width="2.11999989">
                                <polyline id="Stroke-11" points="13.7326 0.7154 0.1886 8.4004 13.7326 16.3914 41.0646 0.6234"></polyline>
                                <path d="M13.7326,16.3912 L13.8916,32.0002" id="Stroke-13"></path>
                            </g>
                            <polyline id="Stroke-16" stroke="#87C56F" stroke-width="2.11999989" stroke-linecap="round" stroke-linejoin="round" points="78.299 40.3178 64.733 32.4688 64.733 16.5588 64.733 32.4688 64.733 16.5588 51.189 24.6358 51.189 40.1538 37.719 32.3768"></polyline>
                            <polygon id="Fill-17" fill="#87C56F" points="64.7326 32.4687 51.1886 40.1537 51.1886 24.6357 64.7326 16.5587"></polygon>
                            <polygon id="Fill-18" fill="#87C56F" points="26.9826 31.0956 13.4396 38.7806 13.4396 23.2626 26.9826 15.1856"></polygon>
                            <g id="Group-23" transform="translate(0.000000, 6.753300)" stroke="#87C56F" stroke-linecap="round" stroke-linejoin="round" stroke-width="2.11999989">
                                <polygon id="Stroke-19" points="13.4396 31.7105 0.0006 23.9515 0.0006 8.4325 13.4396 0.6735 26.8786 8.4325 26.8786 23.9515"></polygon>
                                <polyline id="Stroke-21" points="0.0001 8.4327 13.4391 16.1917 26.8791 8.4327"></polyline>
                            </g>
                            <path d="M13.4396,22.9453 L13.4396,38.4643" id="Stroke-24" stroke="#87C56F" stroke-width="2.11999989" stroke-linecap="round" stroke-linejoin="round"></path>
                            <polygon id="Fill-25" fill="#87C56F" points="78.299 24.6358 78.299 40.3178 64.732 48.1448 64.892 63.7538 92.065 48.0648 92.065 16.6888"></polygon>
                        </g>
                    </g>
                </g>
            </g>
        </g>
    </g>
</svg>