<?xml version="1.0" encoding="UTF-8"?>
<svg width="32px" height="32px" viewBox="0 0 32 32" version="1.1" xmlns="http://www.w3.org/2000/svg" xmlns:xlink="http://www.w3.org/1999/xlink">
    <!-- Generator: Sketch 50.2 (55047) - http://www.bohemiancoding.com/sketch -->
    <title>32x32/ArrowDropwdown--Dark@1,5x</title>
    <desc>Created with Sketch.</desc>
    <defs></defs>
    <g id="Symbols" stroke="none" stroke-width="1" fill="none" fill-rule="evenodd">
        <g id="32x32/ArrowDropwdown--Dark">
            <g>
                <rect id="placer" x="0" y="0" width="32" height="32"></rect>
                <g id="Icon" transform="translate(12.000000, 8.000000)" stroke="#2B2E33" stroke-linecap="round" stroke-linejoin="round" stroke-width="2">
                    <g id="16x16/chevron-down/black" transform="translate(0.000000, 11.000000)">
                        <g id="Shape">
                            <polyline points="0 0 4 4 8 0"></polyline>
                        </g>
                    </g>
                    <g id="16x16/chevron-down/black" transform="translate(4.000000, 2.000000) rotate(-180.000000) translate(-4.000000, -2.000000) ">
                        <g id="Shape">
                            <polyline points="0 0 4 4 8 0"></polyline>
                        </g>
                    </g>
                </g>
            </g>
        </g>
    </g>
</svg>